\relax 
\@writefile{lof}{\contentsline {figure}{\numberline {1}{\ignorespaces Example of a covid intervention model use a Markov network.}}{2}{}\protected@file@percent }
\newlabel{fig:mrf}{{1}{2}}
\gdef \@abspage@last{2}
